{
    "maintenance_model": "Classic",
    "first_maintainer": "",
    "second_maintainer": "",
    "implicit_maintainers": [],
    "coordinator": "",
    "tester": "",
    "testcase_writer": "",
    "path": "Services/Component",
    "belong_to_component": "None",
    "used_in_components": [
        "Plugin Slots"
    ]
}